…
test <- data.frame(table(unlist(strsplit(narratives$narrative, " "))))
test <- as_tibble(test)

test %>%
  arrange(desc(Freq)) %>%
  filter(
    !Var1 %in% c("ON", "", " ", "-", "AND", "TO", "A", "AT", "THE", "DX", "OF", 
                 "PT", "IN", "DX:", "YOF", "OUT", "WITH") 
  )
```

    ## # A tibble: 104,383 x 2
    ##    Var1        Freq
    ##    <fct>      <int>
    ##  1 FELL      186186
    ##  2 FLOOR      76647
    ##  3 DOWN       75223
    ##  4 HEAD       70398
    ##  5 BED        58745
    ##  6 HOME       56579
    ##  7 STEPS      37474
    ##  8 HIT        36219
    ##  9 CONTUSION  35240
    ## 10 STAIRS     33965
    ## # ... with 104,373 more rows
…
