…
``` r
# Print results
if (exists("redline_atlanta")) redline_atlanta
```

    ## Simple feature collection with 934 features and 4 fields
    ## geometry type:  MULTIPOLYGON
    ## dimension:      XY
    ## bbox:           xmin: -84.85071 ymin: 33.50251 xmax: -84.02371 ymax: 34.18629
    ## epsg (SRID):    4269
    ## proj4string:    +proj=longlat +datum=NAD83 +no_defs
    ## # A tibble: 934 x 5
    ##    GEOID        holc_grade holc_id name_1                         geometry
    ##    <chr>        <chr>      <chr>   <chr>                <MULTIPOLYGON [°]>
    ##  1 131210114103 <NA>       <NA>    <NA>       (((-84.29335 33.99785, -84.…
    ##  2 131210106041 <NA>       <NA>    <NA>       (((-84.47437 33.62653, -84.…
    ##  3 131210095022 B          B1      Paces Fer… (((-84.38513 33.83672, -84.…
    ##  4 131210053003 C          C       <NA>       (((-84.37851 33.73032, -84.…
    ##  5 130890214132 <NA>       <NA>    <NA>       (((-84.3228 33.85167, -84.3…
    ##  6 130890223013 <NA>       <NA>    <NA>       (((-84.29709 33.80051, -84.…
    ##  7 131210099004 <NA>       <NA>    <NA>       (((-84.40878 33.87216, -84.…
    ##  8 131210083022 C          C36     Newer por… (((-84.45383 33.75422, -84.…
    ##  9 130890231072 <NA>       <NA>    <NA>       (((-84.25297 33.74464, -84.…
    ## 10 131210069003 C          C27     Federal P… (((-84.36842 33.72625, -84.…
    ## # ... with 924 more rows
…
``` r
# Print results
if (exists("redline_atlanta")) redline_atlanta
```

    ## Simple feature collection with 934 features and 5 fields
    ## geometry type:  MULTIPOLYGON
    ## dimension:      XY
    ## bbox:           xmin: -84.85071 ymin: 33.50251 xmax: -84.02371 ymax: 34.18629
    ## epsg (SRID):    4269
    ## proj4string:    +proj=longlat +datum=NAD83 +no_defs
    ## # A tibble: 934 x 6
    ##    GEOID  holc_grade holc_id name_1    redline                    geometry
    ##    <chr>  <chr>      <chr>   <chr>     <fct>            <MULTIPOLYGON [°]>
    ##  1 13121… <NA>       <NA>    <NA>      Not Gr… (((-84.29335 33.99785, -84…
    ##  2 13121… <NA>       <NA>    <NA>      Not Gr… (((-84.47437 33.62653, -84…
    ##  3 13121… B          B1      Paces Fe… B - St… (((-84.38513 33.83672, -84…
    ##  4 13121… C          C       <NA>      C - De… (((-84.37851 33.73032, -84…
    ##  5 13089… <NA>       <NA>    <NA>      Not Gr… (((-84.3228 33.85167, -84.…
    ##  6 13089… <NA>       <NA>    <NA>      Not Gr… (((-84.29709 33.80051, -84…
    ##  7 13121… <NA>       <NA>    <NA>      Not Gr… (((-84.40878 33.87216, -84…
    ##  8 13121… C          C36     Newer po… C - De… (((-84.45383 33.75422, -84…
    ##  9 13089… <NA>       <NA>    <NA>      Not Gr… (((-84.25297 33.74464, -84…
    ## 10 13121… C          C27     Federal … C - De… (((-84.36842 33.72625, -84…
    ## # ... with 924 more rows
…
census2016 <- read_rds(fname2)

#reading in eviction data

gaevictions <- read_rds(fname3)

gaevictions <- 
  gaevictions %>%
  semi_join(redline_atlanta, by = "GEOID")

# Print results
if (exists("gaevictions")) gaevictions
```

    ## # A tibble: 15,878 x 26
    ##    GEOID        year name  `parent-location`     population `poverty-rate`
    ##    <chr>       <int> <chr> <chr>                      <dbl>          <dbl>
    ##  1 1308902010…  2000 201.1 DeKalb County, Georg…       1783           4.71
    ##  2 1308902010…  2001 201.1 DeKalb County, Georg…       1783           4.71
    ##  3 1308902010…  2002 201.1 DeKalb County, Georg…       1783           4.71
    ##  4 1308902010…  2003 201.1 DeKalb County, Georg…       1783           4.71
    ##  5 1308902010…  2004 201.1 DeKalb County, Georg…       1783           4.71
    ##  6 1308902010…  2005 201.1 DeKalb County, Georg…       2180           0.6 
    ##  7 1308902010…  2006 201.1 DeKalb County, Georg…       2180           0.6 
    ##  8 1308902010…  2007 201.1 DeKalb County, Georg…       2180           0.6 
    ##  9 1308902010…  2008 201.1 DeKalb County, Georg…       2180           0.6 
    ## 10 1308902010…  2009 201.1 DeKalb County, Georg…       2180           0.6 
    ## # ... with 15,868 more rows, and 20 more variables:
    ## #   `pct-renter-occupied` <dbl>, `median-gross-rent` <dbl>,
    ## #   `median-household-income` <dbl>, `median-property-value` <dbl>,
    ## #   `rent-burden` <dbl>, `pct-white` <dbl>, `pct-af-am` <dbl>,
    ## #   `pct-hispanic` <dbl>, `pct-am-ind` <dbl>, `pct-asian` <dbl>,
    ## #   `pct-nh-pi` <dbl>, `pct-multiple` <dbl>, `pct-other` <dbl>,
    ## #   renter_occupied_households <dbl>, eviction_filings <dbl>,
    ## #   evictions <dbl>, eviction_rate <dbl>, eviction_filing_rate <dbl>,
    ## #   imputed <int>, subbed <int>
…
# Print results
if (exists("q2.3")) q2.3
```

    ## Simple feature collection with 85 features and 7 fields
    ## geometry type:  MULTIPOLYGON
    ## dimension:      XY
    ## bbox:           xmin: -84.85071 ymin: 33.50251 xmax: -84.02371 ymax: 34.18629
    ## epsg (SRID):    4269
    ## proj4string:    +proj=longlat +datum=NAD83 +no_defs
    ## # A tibble: 85 x 8
    ## # Groups:   redline [5]
    ##    redline       year total_eviction_filin… total_evictions total_rent_occ
    ##    <fct>        <int>                 <dbl>           <dbl>          <dbl>
    ##  1 D - Hazardo…  2000                    NA              NA          27392
    ##  2 D - Hazardo…  2001                  7676             523          27377
    ##  3 D - Hazardo…  2002                  7274             530          27352
    ##  4 D - Hazardo…  2003                  7287             490          27342
    ##  5 D - Hazardo…  2004                  6495             495          27322
    ##  6 D - Hazardo…  2005                  6873             513          27325
    ##  7 D - Hazardo…  2006                  7201            1179          27292
    ##  8 D - Hazardo…  2007                  6906            1330          27278
    ##  9 D - Hazardo…  2008                  7282            1582          27259
    ## 10 D - Hazardo…  2009                  6405            2014          27244
    ## # ... with 75 more rows, and 3 more variables: eviction_rate <dbl>,
    ## #   eviction_filing_rate <dbl>, geometry <MULTIPOLYGON [°]>
…
# Print results
if (exists("q3.3")) q3.3
```

    ## Simple feature collection with 934 features and 121 fields
    ## geometry type:  MULTIPOLYGON
    ## dimension:      XY
    ## bbox:           xmin: -84.85071 ymin: 33.50251 xmax: -84.02371 ymax: 34.18629
    ## epsg (SRID):    4269
    ## proj4string:    +proj=longlat +datum=NAD83 +no_defs
    ## # A tibble: 934 x 122
    ##    GEOID  holc_grade holc_id name_1     redline  areaname    county TotPop
    ##    <chr>  <chr>      <chr>   <chr>      <fct>    <chr>        <int>  <dbl>
    ##  1 13121… <NA>       <NA>    <NA>       Not Gra… Block Grou…  13121   1962
    ##  2 13121… <NA>       <NA>    <NA>       Not Gra… Block Grou…  13121    730
    ##  3 13121… B          B1      Paces Fer… B - Sti… Block Grou…  13121    256
    ##  4 13121… C          C       <NA>       C - Def… Block Grou…  13121    630
    ##  5 13089… <NA>       <NA>    <NA>       Not Gra… Block Grou…  13089   1237
    ##  6 13089… <NA>       <NA>    <NA>       Not Gra… Block Grou…  13089   1028
    ##  7 13121… <NA>       <NA>    <NA>       Not Gra… Block Grou…  13121    888
    ##  8 13121… C          C36     Newer por… C - Def… Block Grou…  13121   1065
    ##  9 13089… <NA>       <NA>    <NA>       Not Gra… Block Grou…  13089   1193
    ## 10 13121… C          C27     Federal P… C - Def… Block Grou…  13121   1203
    ## # ... with 924 more rows, and 114 more variables: MedianAge <dbl>,
    ## #   pctOver25 <dbl>, pctOver65 <dbl>, pctMales <dbl>, pctFemales <dbl>,
    ## #   pctWhite1 <dbl>, pctBlack1 <dbl>, pctIndian1 <dbl>, pctAsian1 <dbl>,
    ## #   pctWhite2 <dbl>, pctBlack2 <dbl>, pctHispanicPop <dbl>,
    ## #   pctNonHispPop <dbl>, pctNonHispWhite <dbl>, TotHHs <dbl>,
    ## #   pctHHInc0 <dbl>, pctHHInc10 <dbl>, pctHHInc15 <dbl>, pctHHInc25 <dbl>,
    ## #   pctHHInc35 <dbl>, pctHHInc50 <dbl>, pctHHInc75 <dbl>,
    ## #   pctHHInc100 <dbl>, pctHHInc150 <dbl>, pctHHInc200 <dbl>,
    ## #   pctNumHHEarnings <dbl>, pctNumHHSocSec <dbl>, pctNumHHRetInc <dbl>,
…
``` r
# Print results
if (exists("q3.4")) q3.4
```

    ## Simple feature collection with 934 features and 4 fields
    ## geometry type:  MULTIPOLYGON
    ## dimension:      XY
    ## bbox:           xmin: -84.85071 ymin: 33.50251 xmax: -84.02371 ymax: 34.18629
    ## epsg (SRID):    4269
    ## proj4string:    +proj=longlat +datum=NAD83 +no_defs
    ## # A tibble: 934 x 5
    ##    GEOID        redline MedianHValue MedianHHInc                  geometry
    ##    <chr>        <fct>          <dbl>       <dbl>        <MULTIPOLYGON [°]>
    ##  1 131210114103 Not Gr…       349600      115337 (((-84.29335 33.99785, -…
    ##  2 131210106041 Not Gr…           NA       27500 (((-84.47437 33.62653, -…
    ##  3 131210095022 B - St…        90300       36109 (((-84.38513 33.83672, -…
    ##  4 131210053003 C - De…       290600      106912 (((-84.37851 33.73032, -…
    ##  5 130890214132 Not Gr…       287500       36042 (((-84.3228 33.85167, -8…
    ##  6 130890223013 Not Gr…       240800       73768 (((-84.29709 33.80051, -…
    ##  7 131210099004 Not Gr…       956600      250001 (((-84.40878 33.87216, -…
    ##  8 131210083022 C - De…        60700       35032 (((-84.45383 33.75422, -…
    ##  9 130890231072 Not Gr…        86900       29531 (((-84.25297 33.74464, -…
    ## 10 131210069003 C - De…       159300       68000 (((-84.36842 33.72625, -…
    ## # ... with 924 more rows
…
