…
## $ GEOID      &lt;chr&gt; "131210114103", "131210106041", "131210095022", "13...
## $ holc_grade &lt;chr&gt; NA, NA, "B", "C", NA, NA, NA, "C", NA, "C", NA, NA,...
## $ holc_id    &lt;chr&gt; NA, NA, "B1", "C", NA, NA, NA, "C36", NA, "C27", NA...
## $ name_1     &lt;chr&gt; NA, NA, "Paces Ferry Road Development Company's pro...
## $ geometry   &lt;MULTIPOLYGON [°]&gt; MULTIPOLYGON (((-84.29335 3..., MULTIP...
</code></pre>
<div class="highlight highlight-source-r"><pre><span class="pl-c"><span class="pl-c">#</span> Print results</span>
<span class="pl-k">if</span> (exists(<span class="pl-s"><span class="pl-pds">"</span>redline_atlanta<span class="pl-pds">"</span></span>)) <span class="pl-smi">redline_atlanta</span></pre></div>
<pre><code>## Simple feature collection with 934 features and 4 fields
## geometry type:  MULTIPOLYGON
## dimension:      XY
## bbox:           xmin: -84.85071 ymin: 33.50251 xmax: -84.02371 ymax: 34.18629
## epsg (SRID):    4269
## proj4string:    +proj=longlat +datum=NAD83 +no_defs
## # A tibble: 934 x 5
##    GEOID        holc_grade holc_id name_1                         geometry
##    &lt;chr&gt;        &lt;chr&gt;      &lt;chr&gt;   &lt;chr&gt;                &lt;MULTIPOLYGON [°]&gt;
##  1 131210114103 &lt;NA&gt;       &lt;NA&gt;    &lt;NA&gt;       (((-84.29335 33.99785, -84.…
##  2 131210106041 &lt;NA&gt;       &lt;NA&gt;    &lt;NA&gt;       (((-84.47437 33.62653, -84.…
##  3 131210095022 B          B1      Paces Fer… (((-84.38513 33.83672, -84.…
##  4 131210053003 C          C       &lt;NA&gt;       (((-84.37851 33.73032, -84.…
##  5 130890214132 &lt;NA&gt;       &lt;NA&gt;    &lt;NA&gt;       (((-84.3228 33.85167, -84.3…
##  6 130890223013 &lt;NA&gt;       &lt;NA&gt;    &lt;NA&gt;       (((-84.29709 33.80051, -84.…
##  7 131210099004 &lt;NA&gt;       &lt;NA&gt;    &lt;NA&gt;       (((-84.40878 33.87216, -84.…
##  8 131210083022 C          C36     Newer por… (((-84.45383 33.75422, -84.…
##  9 130890231072 &lt;NA&gt;       &lt;NA&gt;    &lt;NA&gt;       (((-84.25297 33.74464, -84.…
## 10 131210069003 C          C27     Federal P… (((-84.36842 33.72625, -84.…
## # ... with 924 more rows
…
## $ holc_grade &lt;chr&gt; NA, NA, "B", "C", NA, NA, NA, "C", NA, "C", NA, NA,...
## $ holc_id    &lt;chr&gt; NA, NA, "B1", "C", NA, NA, NA, "C36", NA, "C27", NA...
## $ name_1     &lt;chr&gt; NA, NA, "Paces Ferry Road Development Company's pro...
## $ redline    &lt;fct&gt; Not Graded, Not Graded, B - Still Desirable, C - De...
## $ geometry   &lt;MULTIPOLYGON [°]&gt; MULTIPOLYGON (((-84.29335 3..., MULTIP...
</code></pre>
<div class="highlight highlight-source-r"><pre><span class="pl-c"><span class="pl-c">#</span> Print results</span>
<span class="pl-k">if</span> (exists(<span class="pl-s"><span class="pl-pds">"</span>redline_atlanta<span class="pl-pds">"</span></span>)) <span class="pl-smi">redline_atlanta</span></pre></div>
<pre><code>## Simple feature collection with 934 features and 5 fields
## geometry type:  MULTIPOLYGON
## dimension:      XY
## bbox:           xmin: -84.85071 ymin: 33.50251 xmax: -84.02371 ymax: 34.18629
## epsg (SRID):    4269
## proj4string:    +proj=longlat +datum=NAD83 +no_defs
## # A tibble: 934 x 6
##    GEOID  holc_grade holc_id name_1    redline                    geometry
##    &lt;chr&gt;  &lt;chr&gt;      &lt;chr&gt;   &lt;chr&gt;     &lt;fct&gt;            &lt;MULTIPOLYGON [°]&gt;
##  1 13121… &lt;NA&gt;       &lt;NA&gt;    &lt;NA&gt;      Not Gr… (((-84.29335 33.99785, -84…
##  2 13121… &lt;NA&gt;       &lt;NA&gt;    &lt;NA&gt;      Not Gr… (((-84.47437 33.62653, -84…
##  3 13121… B          B1      Paces Fe… B - St… (((-84.38513 33.83672, -84…
##  4 13121… C          C       &lt;NA&gt;      C - De… (((-84.37851 33.73032, -84…
##  5 13089… &lt;NA&gt;       &lt;NA&gt;    &lt;NA&gt;      Not Gr… (((-84.3228 33.85167, -84.…
##  6 13089… &lt;NA&gt;       &lt;NA&gt;    &lt;NA&gt;      Not Gr… (((-84.29709 33.80051, -84…
##  7 13121… &lt;NA&gt;       &lt;NA&gt;    &lt;NA&gt;      Not Gr… (((-84.40878 33.87216, -84…
##  8 13121… C          C36     Newer po… C - De… (((-84.45383 33.75422, -84…
##  9 13089… &lt;NA&gt;       &lt;NA&gt;    &lt;NA&gt;      Not Gr… (((-84.25297 33.74464, -84…
## 10 13121… C          C27     Federal … C - De… (((-84.36842 33.72625, -84…
## # ... with 924 more rows
…
<span class="pl-c"><span class="pl-c">#</span> Print results</span>
<span class="pl-k">if</span> (exists(<span class="pl-s"><span class="pl-pds">"</span>q2.3<span class="pl-pds">"</span></span>)) <span class="pl-smi">q2.3</span></pre></div>
<pre><code>## Simple feature collection with 85 features and 7 fields
## geometry type:  MULTIPOLYGON
## dimension:      XY
## bbox:           xmin: -84.85071 ymin: 33.50251 xmax: -84.02371 ymax: 34.18629
## epsg (SRID):    4269
## proj4string:    +proj=longlat +datum=NAD83 +no_defs
## # A tibble: 85 x 8
## # Groups:   redline [5]
##    redline       year total_eviction_filin… total_evictions total_rent_occ
##    &lt;fct&gt;        &lt;int&gt;                 &lt;dbl&gt;           &lt;dbl&gt;          &lt;dbl&gt;
##  1 D - Hazardo…  2000                    NA              NA          27392
##  2 D - Hazardo…  2001                  7676             523          27377
##  3 D - Hazardo…  2002                  7274             530          27352
##  4 D - Hazardo…  2003                  7287             490          27342
##  5 D - Hazardo…  2004                  6495             495          27322
##  6 D - Hazardo…  2005                  6873             513          27325
##  7 D - Hazardo…  2006                  7201            1179          27292
##  8 D - Hazardo…  2007                  6906            1330          27278
##  9 D - Hazardo…  2008                  7282            1582          27259
## 10 D - Hazardo…  2009                  6405            2014          27244
## # ... with 75 more rows, and 3 more variables: eviction_rate &lt;dbl&gt;,
## #   eviction_filing_rate &lt;dbl&gt;, geometry &lt;MULTIPOLYGON [°]&gt;
…
<span class="pl-c"><span class="pl-c">#</span> Print results</span>
<span class="pl-k">if</span> (exists(<span class="pl-s"><span class="pl-pds">"</span>q3.3<span class="pl-pds">"</span></span>)) <span class="pl-smi">q3.3</span></pre></div>
<pre><code>## Simple feature collection with 934 features and 121 fields
## geometry type:  MULTIPOLYGON
## dimension:      XY
## bbox:           xmin: -84.85071 ymin: 33.50251 xmax: -84.02371 ymax: 34.18629
## epsg (SRID):    4269
## proj4string:    +proj=longlat +datum=NAD83 +no_defs
## # A tibble: 934 x 122
##    GEOID  holc_grade holc_id name_1     redline  areaname    county TotPop
##    &lt;chr&gt;  &lt;chr&gt;      &lt;chr&gt;   &lt;chr&gt;      &lt;fct&gt;    &lt;chr&gt;        &lt;int&gt;  &lt;dbl&gt;
##  1 13121… &lt;NA&gt;       &lt;NA&gt;    &lt;NA&gt;       Not Gra… Block Grou…  13121   1962
##  2 13121… &lt;NA&gt;       &lt;NA&gt;    &lt;NA&gt;       Not Gra… Block Grou…  13121    730
##  3 13121… B          B1      Paces Fer… B - Sti… Block Grou…  13121    256
##  4 13121… C          C       &lt;NA&gt;       C - Def… Block Grou…  13121    630
##  5 13089… &lt;NA&gt;       &lt;NA&gt;    &lt;NA&gt;       Not Gra… Block Grou…  13089   1237
##  6 13089… &lt;NA&gt;       &lt;NA&gt;    &lt;NA&gt;       Not Gra… Block Grou…  13089   1028
##  7 13121… &lt;NA&gt;       &lt;NA&gt;    &lt;NA&gt;       Not Gra… Block Grou…  13121    888
##  8 13121… C          C36     Newer por… C - Def… Block Grou…  13121   1065
##  9 13089… &lt;NA&gt;       &lt;NA&gt;    &lt;NA&gt;       Not Gra… Block Grou…  13089   1193
## 10 13121… C          C27     Federal P… C - Def… Block Grou…  13121   1203
## # ... with 924 more rows, and 114 more variables: MedianAge &lt;dbl&gt;,
## #   pctOver25 &lt;dbl&gt;, pctOver65 &lt;dbl&gt;, pctMales &lt;dbl&gt;, pctFemales &lt;dbl&gt;,
## #   pctWhite1 &lt;dbl&gt;, pctBlack1 &lt;dbl&gt;, pctIndian1 &lt;dbl&gt;, pctAsian1 &lt;dbl&gt;,
## #   pctWhite2 &lt;dbl&gt;, pctBlack2 &lt;dbl&gt;, pctHispanicPop &lt;dbl&gt;,
## #   pctNonHispPop &lt;dbl&gt;, pctNonHispWhite &lt;dbl&gt;, TotHHs &lt;dbl&gt;,
## #   pctHHInc0 &lt;dbl&gt;, pctHHInc10 &lt;dbl&gt;, pctHHInc15 &lt;dbl&gt;, pctHHInc25 &lt;dbl&gt;,
## #   pctHHInc35 &lt;dbl&gt;, pctHHInc50 &lt;dbl&gt;, pctHHInc75 &lt;dbl&gt;,
## #   pctHHInc100 &lt;dbl&gt;, pctHHInc150 &lt;dbl&gt;, pctHHInc200 &lt;dbl&gt;,
## #   pctNumHHEarnings &lt;dbl&gt;, pctNumHHSocSec &lt;dbl&gt;, pctNumHHRetInc &lt;dbl&gt;,
…
    <span class="pl-v">x</span> <span class="pl-k">=</span> <span class="pl-s"><span class="pl-pds">"</span>Median Household Income<span class="pl-pds">"</span></span>,
    <span class="pl-v">fill</span> <span class="pl-k">=</span> <span class="pl-s"><span class="pl-pds">"</span>Redline Grade<span class="pl-pds">"</span></span>
  )</pre></div>
<pre><code>## Warning: Removed 15 rows containing non-finite values (stat_density).
</code></pre>
<p><a target="_blank" href="/dcl-2018-04/ife/blob/master/c01-own/redline_inequality/solution_files/figure-markdown_github/unnamed-chunk-17-2.png"><img src="/dcl-2018-04/ife/raw/master/c01-own/redline_inequality/solution_files/figure-markdown_github/unnamed-chunk-17-2.png" alt="" style="max-width:100%;"></a></p>
<div class="highlight highlight-source-r"><pre><span class="pl-c"><span class="pl-c">#</span> Print results</span>
<span class="pl-k">if</span> (exists(<span class="pl-s"><span class="pl-pds">"</span>q3.4<span class="pl-pds">"</span></span>)) <span class="pl-smi">q3.4</span></pre></div>
<pre><code>## Simple feature collection with 934 features and 4 fields
## geometry type:  MULTIPOLYGON
## dimension:      XY
## bbox:           xmin: -84.85071 ymin: 33.50251 xmax: -84.02371 ymax: 34.18629
## epsg (SRID):    4269
## proj4string:    +proj=longlat +datum=NAD83 +no_defs
## # A tibble: 934 x 5
##    GEOID        redline MedianHValue MedianHHInc                  geometry
##    &lt;chr&gt;        &lt;fct&gt;          &lt;dbl&gt;       &lt;dbl&gt;        &lt;MULTIPOLYGON [°]&gt;
##  1 131210114103 Not Gr…       349600      115337 (((-84.29335 33.99785, -…
##  2 131210106041 Not Gr…           NA       27500 (((-84.47437 33.62653, -…
##  3 131210095022 B - St…        90300       36109 (((-84.38513 33.83672, -…
##  4 131210053003 C - De…       290600      106912 (((-84.37851 33.73032, -…
##  5 130890214132 Not Gr…       287500       36042 (((-84.3228 33.85167, -8…
##  6 130890223013 Not Gr…       240800       73768 (((-84.29709 33.80051, -…
##  7 131210099004 Not Gr…       956600      250001 (((-84.40878 33.87216, -…
##  8 131210083022 C - De…        60700       35032 (((-84.45383 33.75422, -…
##  9 130890231072 Not Gr…        86900       29531 (((-84.25297 33.74464, -…
## 10 131210069003 C - De…       159300       68000 (((-84.36842 33.72625, -…
## # ... with 924 more rows
…
